{
    "$schema": "https://raw.githubusercontent.com/acumos/license-manager/master/license-manager-client-library/src/main/resources/schema/1.0.0/license-profile.json",
    "keyword": "Potassco-PeterSchueller-MIT",
    "licenseName": "MIT License",
    "copyright": {
        "year": 2017,
        "company": "Roland Kaminski",
        "suffix": ""
    },
    "softwareType": "Graphical User Interface",
    "companyName": "Potassco Solutions",
    "contact": {
        "name": "Peter Schüller",
        "URL": "http://peterschueller.com/",
        "email": "contact@peterschueller.com"
    },
    "additionalInfo": "Professional Consulting Services available",
    "rtuRequired": false
}