{
    "model_name": "asp-solver",
    "docker_uri": "cicd.ai4eu-dev.eu:7444/tutorials/sudoku:aspsolver-1.2",
    "category": "CL",
    "documents": [],
    "tags": {
        "modelTypeCode": "CL",
        "toolkitTypeCode": "SK",
        "tags": [
            {
                "tag": "playground"
            },
            {
                "tag": "ready"
            },
            {
                "tag": "asp"
            },
            {
                "tag": "tutorial"
            },
            {
                "tag": "clingo"
            },
            {
                "tag": "knowledge"
            },
            {
                "tag": "representation"
            },
            {
                "tag": "potassco"
            },
            {
                "tag": "reasoning"
            },
            {
                "tag": "rules"
            }
        ]
    },
    "icon_filename": "icon.png",
    "protobuf": "model.proto",
    "license": "license.json",
    "nodeId": "asp-solver-16992235121",
    "nodeSolutionId": "53aa7968-d454-49bf-8de3-992766dc7c70"
}