{
    "model_name": "shared-folder-provider",
    "docker_uri": "cicd.ai4eu-dev.eu:7444/virtual:v1",
    "category": "DT",
    "documents": [],
    "tags": {
        "modelTypeCode": "DT",
        "toolkitTypeCode": "SF",
        "tags": [
            {
                "tag": "playground"
            },
            {
                "tag": "ready"
            },
            {
                "tag": "shared"
            },
            {
                "tag": "folder"
            },
            {
                "tag": "tutorial"
            },
            {
                "tag": "GUI"
            }
        ]
    },
    "icon_filename": "icon.png",
    "protobuf": "model.proto",
    "license": "license.json",
    "nodeId": "shared-folder-provider-16992235121",
    "nodeSolutionId": "ced722e5-0588-43af-a081-a4d4afc8117d"
}