{
    "model_name": "ner-model",
    "docker_uri": "cicd.ai4eu-dev.eu:7444/tutorials/named_entity_recognition/ner_model:v1",
    "category": "PR",
    "documents": [],
    "tags": {
        "modelTypeCode": "PR",
        "toolkitTypeCode": "SK",
        "tags": [
            {
                "tag": "playground"
            },
            {
                "tag": "ready"
            },
            {
                "tag": "tutorial"
            },
            {
                "tag": "german"
            },
            {
                "tag": "flair"
            },
            {
                "tag": "ner"
            },
            {
                "tag": "prediction"
            },
            {
                "tag": "named"
            },
            {
                "tag": "entity"
            },
            {
                "tag": "recognition"
            }
        ]
    },
    "icon_filename": "icon.png",
    "protobuf": "model.proto",
    "license": "license.json",
    "nodeId": "ner-model-16992235121",
    "nodeSolutionId": "f33441c5-8dd9-4f5f-a1e1-07a4a7599127"
}