{
    "model_name": "news-classifer",
    "docker_uri": "cicd.ai4eu-dev.eu:7444/training_pipeline/news_classifier:v1",
    "category": "CL",
    "documents": [],
    "tags": {
        "modelTypeCode": "CL",
        "toolkitTypeCode": "SK",
        "tags": [
            {
                "tag": "playground"
            },
            {
                "tag": "ready"
            },
            {
                "tag": "classifier"
            },
            {
                "tag": "tutorial"
            },
            {
                "tag": "GUI"
            },
            {
                "tag": "news"
            },
            {
                "tag": "classifier"
            },
            {
                "tag": "nc"
            }
        ]
    },
    "icon_filename": "icon.png",
    "protobuf": "model.proto",
    "license": "license.json",
    "nodeId": "news-classifer-16992235121",
    "nodeSolutionId": "0ac2461a-dd82-4d09-997f-24f9e62495fd"
}