{
    "pipeline_name": "san",
    "location": "tutorials/sentiment-analysis",
    "models": [
        "sa-classifier",
        "sa-databroker"
    ],
    "icon_filename": "icon.png",
    "tags": {
        "modelTypeCode": "CL",
        "toolkitTypeCode": "CP",
        "tags": [
            {
                "tag": "playground"
            },
            {
                "tag": "ready"
            },
            {
                "tag": "tutorial"
            },
            {
                "tag": "sentiment"
            },
            {
                "tag": "analysis"
            },
            {
                "tag": "pipeline"
            }
        ]
    },"add_link_params": [{
	  "userId": "{self.GRAPHENE_USERID}",
	  "cid": "{pipeline.cid}",
	  "linkId": "{link_id}",
	  "sourceNodeName": "sa-databroker-16992235121",
	  "sourceNodeId": "sa-databroker-16992235121",
	  "targetNodeName": "sa-classifier-16992235121",
	  "targetNodeId": "sa-classifier-16992235121",
	  "sourceNodeRequirement": "sadatabroker+[[{\"role\":\"\",\"tag\":\"1\",\"type\":\"string\"}]]+req0",
	  "targetNodeCapabilityName": "classify_review+[[{\"role\":\"\",\"tag\":\"1\",\"type\":\"string\"}]]+cap0"
	}],
	"modify_node_urls":[
		"dsce/dsce/solution/modifyNode?userid={GRAPHENE_USER_ID}&cid={COMP_SOLUTION_ID}&nodeid=sa-databroker-16992235121&nodename=sa-databroker-16992235121&ndata={\"fixed\":false}"
		],
    "add_link_url":"dsce/dsce/solution/addLink"
}